welcome %r#############################################################%r#          _   _   _      ___  ___  _   _  ______           #%r#         | | | | | |     |  \/  | | | | | |  _  \          #%r#         | | | | | |     | .  . | | | | | | | | |          #%r#         | | | | | |     | |\/| | | | | | | | | |          #%r#         | |_| | | |____ | |  | | | |_| | | |/ /           #%r#          \___/  \_____/ \_|  |_/  \___/  |___/            #%r#                                                           #%r#         Server originally written by Nick Gammon          #%r#                   Edited by Ben Anding                    #%r#  Edited by Andre Clay, Dorian Guidry, and Cameron Bruehl  #%r#                                                           #%r#      Last update by Cameron Bruehl on May 5th, 2019       #%r#############################################################%r%r
motd %rMessage Of The Day (MOTD)%r%rWelcome to our demo! Have fun.%r%r
new_player %r%rWelcome to our MUD! Please read the help files to become familiar with our rules. :)%r%r
existing_player %r%rWelcome back! We hope you enjoy playing today.%r%r
help %r%r---- HELP system ----%r%rlook - look around%rquit - leave the game%rsay (something) - talk to people in the current room%rtell (someone) (something) - talk to a single player%rshutdown - shut the MUD down%rhelp - this help text%rgoto (room) - go to another room%rtransfer (someone) [ (where) ] - transfer another player here, or to another room%rsetflag (who) (what) - sets a flag for a player%rclearflag (who) (what) - clears a flag for a player%rattack (target) - attack specified monster%rhealth - check your current health value%r%r
